lab0/combinational_gates_muxed.vcd
$date
   Tue Sep 28 13:05:28 2021
$end
$version
  P.68d
$end
$timescale
  1ps
$end
$scope module combinational_gates_muxed_tb $end
$scope module UUT $end
$var wire 1 ! sw [4] $end
$var wire 1 " sw [3] $end
$var wire 1 # sw [2] $end
$var wire 1 $ sw [1] $end
$var wire 1 % sw [0] $end
$var wire 1 & nand_out $end
$var wire 1 ' and_out $end
$var wire 1 ( nor_out $end
$var wire 1 ) or_out $end
$var wire 1 * xor_out $end
$var wire 1 + xnor_out $end
$var wire 1 , buff_out $end
$var wire 1 - not_out $end
$var wire 1 . MuxIn [7] $end
$var wire 1 / MuxIn [6] $end
$var wire 1 0 MuxIn [5] $end
$var wire 1 1 MuxIn [4] $end
$var wire 1 2 MuxIn [3] $end
$var wire 1 3 MuxIn [2] $end
$var wire 1 4 MuxIn [1] $end
$var wire 1 5 MuxIn [0] $end
$var wire 1 6 SelectIn [2] $end
$var wire 1 7 SelectIn [1] $end
$var wire 1 8 SelectIn [0] $end
$var reg 1 9 led $end
$upscope $end
$upscope $end
$enddefinitions $end
#0
$dumpvars
0,
1-
01
10
0/
19
1.
08
07
06
0%
0$
0#
0"
0!
0'
1&
15
04
13
02
1(
0)
0*
1+
$end
#5000
1,
0-
11
00
09
1%
05
14
03
12
0(
1)
1*
0+
#10000
0,
1-
19
0%
1$
15
04
#15000
1,
0-
1/
09
0.
1%
1'
0&
05
14
13
02
0*
1+
#20000
0,
1-
01
10
0/
1.
18
0%
0$
1#
0'
1&
15
04
1(
0)
#25000
1,
0-
11
00
19
1%
05
14
03
12
0(
1)
1*
0+
#30000
0,
1-
09
0%
1$
15
04
#35000
1,
0-
1/
19
0.
1%
1'
0&
05
14
13
02
0*
1+
#40000
0,
1-
01
10
0/
1.
08
17
0%
0$
0#
1"
0'
1&
15
04
1(
0)
#45000
1,
0-
11
00
09
1%
05
14
03
12
0(
1)
1*
0+
#50000
0,
1-
0%
1$
15
04
#55000
1,
0-
1/
19
0.
1%
1'
0&
05
14
13
02
0*
1+
#60000
0,
1-
01
10
0/
09
1.
18
0%
0$
1#
0'
1&
15
04
1(
0)
#65000
1,
0-
11
00
19
1%
05
14
03
12
0(
1)
1*
0+
#70000
0,
1-
0%
1$
15
04
#75000
1,
0-
1/
09
0.
1%
1'
0&
05
14
13
02
0*
1+
#80000
0,
1-
01
10
0/
1.
08
07
16
0%
0$
0#
0"
1!
0'
1&
15
04
1(
0)
#85000
1,
0-
11
00
19
1%
05
14
03
12
0(
1)
1*
0+
#90000
0,
1-
0%
1$
15
04
#95000
1,
0-
1/
0.
1%
1'
0&
05
14
13
02
0*
1+
#100000
0,
1-
01
10
0/
1.
18
0%
0$
1#
0'
1&
15
04
1(
0)
#105000
1,
0-
11
00
09
1%
05
14
03
12
0(
1)
1*
0+
#110000
0,
1-
0%
1$
15
04
#115000
1,
0-
1/
0.
1%
1'
0&
05
14
13
02
0*
1+
#120000
0,
1-
01
10
0/
1.
08
17
0%
0$
0#
1"
0'
1&
15
04
1(
0)
#125000
1,
0-
11
00
1%
05
14
03
12
0(
1)
1*
0+
#130000
0,
1-
0%
1$
15
04
#135000
1,
0-
1/
19
0.
1%
1'
0&
05
14
13
02
0*
1+
#140000
0,
1-
01
10
0/
1.
18
0%
0$
1#
0'
1&
15
04
1(
0)
#145000
1,
0-
11
00
1%
05
14
03
12
0(
1)
1*
0+
#150000
0,
1-
0%
1$
15
04
#155000
1,
0-
1/
09
0.
1%
1'
0&
05
14
13
02
0*
1+
